{
  "_fv": 34,
  "_type": "recipe",
  "definition": {
    "recipeType": "Smelting",
    "xpReward": 50.0,
    "cookingTime": 1200,
    "recipeRetstackSize": 1,
    "group": "",
    "recipeShapeless": false,
    "smeltingInputStack": {
      "value": "CUSTOM:Shellore"
    },
    "smeltingReturnStack": {
      "value": "CUSTOM:ShellFragments"
    },
    "name": "cook_shell_ore",
    "namespace": "mod"
  }
}