{
  "display": {
    "icon": {
      "item": "awttmod:awakened_otter_core"
    },
    "title": {
      "translate": "advancements.awtterarmoradvancement.title"
    },
    "description": {
      "translate": "advancements.awtterarmoradvancement.descr"
    },
    "frame": "goal",
    "show_toast": true,
    "announce_to_chat": true,
    "hidden": true
  },
  "criteria": {
    "awtterarmoradvancement": {
      "trigger": "minecraft:impossible"
    }
  },
  "parent": "minecraft:nether/netherite_armor"
}