{
  "display": {
    "icon": {
      "item": "awttmod:otter_portal_frame_block"
    },
    "title": {
      "translate": "advancements.otter_world_advancement.title"
    },
    "description": {
      "translate": "advancements.otter_world_advancement.descr"
    },
    "frame": "task",
    "show_toast": true,
    "announce_to_chat": true,
    "hidden": true
  },
  "criteria": {
    "otter_world_advancement": {
      "trigger": "minecraft:impossible"
    }
  },
  "parent": "minecraft:story/enter_the_nether"
}