{
  "type": "minecraft:crafting_shaped",
  "pattern": [
    "012",
    "345",
    "678"
  ],
  "key": {
    "0": {
      "item": "minecraft:netherite_block"
    },
    "1": {
      "item": "awttmod:electro_disk_item"
    },
    "2": {
      "item": "minecraft:netherite_block"
    },
    "3": {
      "item": "awttmod:jazz_discitem"
    },
    "4": {
      "item": "minecraft:dragon_egg"
    },
    "5": {
      "item": "awttmod:rockdiscitem"
    },
    "6": {
      "item": "minecraft:netherite_block"
    },
    "7": {
      "item": "awttmod:pop_discitem"
    },
    "8": {
      "item": "minecraft:netherite_block"
    }
  },
  "result": {
    "item": "awttmod:draconic_anvil_item",
    "count": 1
  }
}