{
  "type": "minecraft:crafting_shapeless",
  "ingredients": [
    {
      "item": "minecraft:music_disc_chirp"
    },
    {
      "item": "minecraft:music_disc_11"
    },
    {
      "item": "minecraft:music_disc_13"
    }
  ],
  "result": {
    "item": "awttmod:jazz_discitem",
    "count": 1
  }
}