{
  "type": "minecraft:crafting_shaped",
  "pattern": [
    " 1 ",
    "345",
    " 7 "
  ],
  "key": {
    "1": {
      "item": "minecraft:sponge"
    },
    "3": {
      "item": "minecraft:sponge"
    },
    "4": {
      "item": "awttmod:shell_item"
    },
    "5": {
      "item": "minecraft:sponge"
    },
    "7": {
      "item": "minecraft:sponge"
    }
  },
  "result": {
    "item": "awttmod:soft_shell_item",
    "count": 1
  }
}