{
  "parent": "awttmod:custom/dracoanvil",
  "textures": {
    "all": "awttmod:blocks/draconic_anvil_texture",
    "particle": "awttmod:blocks/anvil_base",
    "0": "awttmod:blocks/hardened_clay_stained_orange",
    "1": "awttmod:blocks/anvil_base"
  },
  "render_type": "solid"
}