newmtl m_0
Ka 0.0 0.0 0.0
Kd 0.0 0.0 0.0
Ks 0.0 0.0 0.0
map_Kd awttmod:blocks/hardened_clay_stained_orange
Ns 100.0
d 1.0
newmtl m_1
Ka 0.0 0.0 0.0
Kd 0.0 0.0 0.0
Ks 0.0 0.0 0.0
map_Kd awttmod:blocks/anvil_base
Ns 100.0
d 1.0
newmtl none
Ka 0.0 0.0 0.0
Kd 0.0 0.0 0.0
Ks 0.0 0.0 0.0
Ns 100.0
d 1.0
